Ch3/74HC151/simulation/qsim/selector_74HC151.msim.vcd
$comment
	File created using the following command:
		vcd file selector_74HC151.msim.vcd -direction
$end
$date
	Sat Dec 25 10:19:30 2021
$end
$version
	ModelSim Version 10.5b
$end
$timescale
	1ps
$end

$scope module selector_74HC151_vlg_vec_tst $end
$var reg 8 ! D [7:0] $end
$var reg 1 " E $end
$var reg 3 # S [2:0] $end
$var wire 1 $ Y $end
$var wire 1 % Y1 $end

$scope module i1 $end
$var wire 1 & gnd $end
$var wire 1 ' vcc $end
$var wire 1 ( unknown $end
$var tri1 1 ) devclrn $end
$var tri1 1 * devpor $end
$var tri1 1 + devoe $end
$var wire 1 , Y~output_o $end
$var wire 1 - Y1~output_o $end
$var wire 1 . E~input_o $end
$var wire 1 / S[0]~input_o $end
$var wire 1 0 D[3]~input_o $end
$var wire 1 1 D[2]~input_o $end
$var wire 1 2 S[2]~input_o $end
$var wire 1 3 S[1]~input_o $end
$var wire 1 4 D[1]~input_o $end
$var wire 1 5 D[0]~input_o $end
$var wire 1 6 Mux0~0_combout $end
$var wire 1 7 D[6]~input_o $end
$var wire 1 8 D[5]~input_o $end
$var wire 1 9 D[7]~input_o $end
$var wire 1 : D[4]~input_o $end
$var wire 1 ; Mux0~4_combout $end
$var wire 1 < Mux0~8_combout $end
$upscope $end
$upscope $end
$enddefinitions $end
#0
$dumpvars
b10101010 !
1"
b0 #
0$
1%
0&
1'
x(
1)
1*
1+
0,
1-
1.
0/
10
01
02
03
14
05
06
07
18
19
0:
0;
0<
$end
#10000
b1 #
1/
16
1;
#20000
b11 #
b10 #
0/
13
06
0;
#30000
b11 #
1/
16
1;
#40000
0"
b111 #
b101 #
b100 #
0.
0/
03
12
06
1<
0-
1,
0;
1$
0%
0<
1-
0,
0$
1%
#50000
b101 #
1/
16
1;
1<
0-
1,
1$
0%
#60000
b111 #
b110 #
0/
13
06
0;
0<
1-
0,
0$
1%
#70000
b111 #
1/
16
1;
1<
0-
1,
1$
0%
#80000
b11 #
b1 #
b0 #
0/
03
02
06
0;
0<
1-
0,
0$
1%
#90000
b1 #
1/
16
1;
1<
0-
1,
1$
0%
#100000
b11 #
b10 #
0/
13
06
0;
0<
1-
0,
0$
1%
#110000
b11 #
1/
16
1;
1<
0-
1,
1$
0%
#120000
b111 #
b101 #
b100 #
0/
03
12
06
0;
0<
1-
0,
0$
1%
#130000
b101 #
1/
16
1;
1<
0-
1,
1$
0%
#140000
b111 #
b110 #
0/
13
06
0;
0<
1-
0,
0$
1%
#150000
b111 #
1/
16
1;
1<
0-
1,
1$
0%
#160000
b11 #
b1 #
b0 #
0/
03
02
06
0;
0<
1-
0,
0$
1%
#170000
b1 #
1/
16
1;
1<
0-
1,
1$
0%
#180000
b11 #
b10 #
0/
13
06
0;
0<
1-
0,
0$
1%
#190000
b11 #
1/
16
1;
1<
0-
1,
1$
0%
#200000
b111 #
b101 #
b100 #
0/
03
12
06
0;
0<
1-
0,
0$
1%
#210000
b101 #
1/
16
1;
1<
0-
1,
1$
0%
#220000
b111 #
b110 #
0/
13
06
0;
0<
1-
0,
0$
1%
#230000
b111 #
1/
16
1;
1<
0-
1,
1$
0%
#240000
b11 #
b1 #
b0 #
0/
03
02
06
0;
0<
1-
0,
0$
1%
#250000
b1 #
1/
16
1;
1<
0-
1,
1$
0%
#260000
b11 #
b10 #
0/
13
06
0;
0<
1-
0,
0$
1%
#270000
b11 #
1/
16
1;
1<
0-
1,
1$
0%
#280000
b111 #
b101 #
b100 #
0/
03
12
06
0;
0<
1-
0,
0$
1%
#290000
b101 #
1/
16
1;
1<
0-
1,
1$
0%
#300000
b111 #
b110 #
0/
13
06
0;
0<
1-
0,
0$
1%
#310000
b111 #
1/
16
1;
1<
0-
1,
1$
0%
#320000
b11 #
b1 #
b0 #
0/
03
02
06
0;
0<
1-
0,
0$
1%
#330000
b1 #
1/
16
1;
1<
0-
1,
1$
0%
#340000
b11 #
b10 #
0/
13
06
0;
0<
1-
0,
0$
1%
#350000
b11 #
1/
16
1;
1<
0-
1,
1$
0%
#360000
b111 #
b101 #
b100 #
0/
03
12
06
0;
0<
1-
0,
0$
1%
#370000
b101 #
1/
16
1;
1<
0-
1,
1$
0%
#380000
b111 #
b110 #
0/
13
06
0;
0<
1-
0,
0$
1%
#390000
b111 #
1/
16
1;
1<
0-
1,
1$
0%
#400000
b11 #
b1 #
b0 #
0/
03
02
06
0;
0<
1-
0,
0$
1%
#410000
b1 #
1/
16
1;
1<
0-
1,
1$
0%
#420000
b11 #
b10 #
0/
13
06
0;
0<
1-
0,
0$
1%
#430000
b11 #
1/
16
1;
1<
0-
1,
1$
0%
#440000
b111 #
b101 #
b100 #
0/
03
12
06
0;
0<
1-
0,
0$
1%
#450000
b101 #
1/
16
1;
1<
0-
1,
1$
0%
#460000
b111 #
b110 #
0/
13
06
0;
0<
1-
0,
0$
1%
#470000
b111 #
1/
16
1;
1<
0-
1,
1$
0%
#480000
b11 #
b1 #
b0 #
0/
03
02
06
0;
0<
1-
0,
0$
1%
#490000
b1 #
1/
16
1;
1<
0-
1,
1$
0%
#500000
b11 #
b10 #
0/
13
06
0;
0<
1-
0,
0$
1%
#510000
b11 #
1/
16
1;
1<
0-
1,
1$
0%
#520000
b111 #
b101 #
b100 #
0/
03
12
06
0;
0<
1-
0,
0$
1%
#530000
b101 #
1/
16
1;
1<
0-
1,
1$
0%
#540000
b111 #
b110 #
0/
13
06
0;
0<
1-
0,
0$
1%
#550000
b111 #
1/
16
1;
1<
0-
1,
1$
0%
#560000
b11 #
b1 #
b0 #
0/
03
02
06
0;
0<
1-
0,
0$
1%
#570000
b1 #
1/
16
1;
1<
0-
1,
1$
0%
#580000
b11 #
b10 #
0/
13
06
0;
0<
1-
0,
0$
1%
#590000
b11 #
1/
16
1;
1<
0-
1,
1$
0%
#600000
b111 #
b101 #
b100 #
0/
03
12
06
0;
0<
1-
0,
0$
1%
#610000
b101 #
1/
16
1;
1<
0-
1,
1$
0%
#620000
b111 #
b110 #
0/
13
06
0;
0<
1-
0,
0$
1%
#630000
b111 #
1/
16
1;
1<
0-
1,
1$
0%
#640000
b11 #
b1 #
b0 #
0/
03
02
06
0;
0<
1-
0,
0$
1%
#650000
b1 #
1/
16
1;
1<
0-
1,
1$
0%
#660000
b11 #
b10 #
0/
13
06
0;
0<
1-
0,
0$
1%
#670000
b11 #
1/
16
1;
1<
0-
1,
1$
0%
#680000
b111 #
b101 #
b100 #
0/
03
12
06
0;
0<
1-
0,
0$
1%
#690000
b101 #
1/
16
1;
1<
0-
1,
1$
0%
#700000
b111 #
b110 #
0/
13
06
0;
0<
1-
0,
0$
1%
#710000
b111 #
1/
16
1;
1<
0-
1,
1$
0%
#720000
b11 #
b1 #
b0 #
0/
03
02
06
0;
0<
1-
0,
0$
1%
#730000
b1 #
1/
16
1;
1<
0-
1,
1$
0%
#740000
b11 #
b10 #
0/
13
06
0;
0<
1-
0,
0$
1%
#750000
b11 #
1/
16
1;
1<
0-
1,
1$
0%
#760000
b111 #
b101 #
b100 #
0/
03
12
06
0;
0<
1-
0,
0$
1%
#770000
b101 #
1/
16
1;
1<
0-
1,
1$
0%
#780000
b111 #
b110 #
0/
13
06
0;
0<
1-
0,
0$
1%
#790000
b111 #
1/
16
1;
1<
0-
1,
1$
0%
#800000
b11 #
b1 #
b0 #
0/
03
02
06
0;
0<
1-
0,
0$
1%
#810000
b1 #
1/
16
1;
1<
0-
1,
1$
0%
#820000
b11 #
b10 #
0/
13
06
0;
0<
1-
0,
0$
1%
#830000
b11 #
1/
16
1;
1<
0-
1,
1$
0%
#840000
b111 #
b101 #
b100 #
0/
03
12
06
0;
0<
1-
0,
0$
1%
#850000
b101 #
1/
16
1;
1<
0-
1,
1$
0%
#860000
b111 #
b110 #
0/
13
06
0;
0<
1-
0,
0$
1%
#870000
b111 #
1/
16
1;
1<
0-
1,
1$
0%
#880000
b11 #
b1 #
b0 #
0/
03
02
06
0;
0<
1-
0,
0$
1%
#890000
b1 #
1/
16
1;
1<
0-
1,
1$
0%
#900000
b11 #
b10 #
0/
13
06
0;
0<
1-
0,
0$
1%
#910000
b11 #
1/
16
1;
1<
0-
1,
1$
0%
#920000
b111 #
b101 #
b100 #
0/
03
12
06
0;
0<
1-
0,
0$
1%
#930000
b101 #
1/
16
1;
1<
0-
1,
1$
0%
#940000
b111 #
b110 #
0/
13
06
0;
0<
1-
0,
0$
1%
#950000
b111 #
1/
16
1;
1<
0-
1,
1$
0%
#960000
b11 #
b1 #
b0 #
0/
03
02
06
0;
0<
1-
0,
0$
1%
#970000
b1 #
1/
16
1;
1<
0-
1,
1$
0%
#980000
b11 #
b10 #
0/
13
06
0;
0<
1-
0,
0$
1%
#990000
b11 #
1/
16
1;
1<
0-
1,
1$
0%
