Ch6/74HC374/simulation/qsim/reg74HC374.msim.vcd
$comment
	File created using the following command:
		vcd file reg74HC374.msim.vcd -direction
$end
$date
	Sat Dec 25 11:50:29 2021
$end
$version
	ModelSim Version 10.5b
$end
$timescale
	1ps
$end

$scope module reg74HC374_vlg_vec_tst $end
$var reg 1 ! CP $end
$var reg 8 " D [7:0] $end
$var reg 1 # OE $end
$var wire 1 $ Q [7] $end
$var wire 1 % Q [6] $end
$var wire 1 & Q [5] $end
$var wire 1 ' Q [4] $end
$var wire 1 ( Q [3] $end
$var wire 1 ) Q [2] $end
$var wire 1 * Q [1] $end
$var wire 1 + Q [0] $end

$scope module i1 $end
$var wire 1 , gnd $end
$var wire 1 - vcc $end
$var wire 1 . unknown $end
$var tri1 1 / devclrn $end
$var tri1 1 0 devpor $end
$var tri1 1 1 devoe $end
$var wire 1 2 Q[0]~output_o $end
$var wire 1 3 Q[1]~output_o $end
$var wire 1 4 Q[2]~output_o $end
$var wire 1 5 Q[3]~output_o $end
$var wire 1 6 Q[4]~output_o $end
$var wire 1 7 Q[5]~output_o $end
$var wire 1 8 Q[6]~output_o $end
$var wire 1 9 Q[7]~output_o $end
$var wire 1 : CP~input_o $end
$var wire 1 ; CP~inputclkctrl_outclk $end
$var wire 1 < D[0]~input_o $end
$var wire 1 = Q[0]~reg0feeder_combout $end
$var wire 1 > Q[0]~reg0_q $end
$var wire 1 ? OE~input_o $end
$var wire 1 @ Q[0]~enfeeder_combout $end
$var wire 1 A Q[0]~en_q $end
$var wire 1 B D[1]~input_o $end
$var wire 1 C Q[1]~reg0feeder_combout $end
$var wire 1 D Q[1]~reg0_q $end
$var wire 1 E Q[1]~enfeeder_combout $end
$var wire 1 F Q[1]~en_q $end
$var wire 1 G D[2]~input_o $end
$var wire 1 H Q[2]~reg0feeder_combout $end
$var wire 1 I Q[2]~reg0_q $end
$var wire 1 J Q[2]~enfeeder_combout $end
$var wire 1 K Q[2]~en_q $end
$var wire 1 L D[3]~input_o $end
$var wire 1 M Q[3]~reg0_q $end
$var wire 1 N Q[3]~enfeeder_combout $end
$var wire 1 O Q[3]~en_q $end
$var wire 1 P D[4]~input_o $end
$var wire 1 Q Q[4]~reg0_q $end
$var wire 1 R Q[4]~enfeeder_combout $end
$var wire 1 S Q[4]~en_q $end
$var wire 1 T D[5]~input_o $end
$var wire 1 U Q[5]~reg0_q $end
$var wire 1 V Q[5]~enfeeder_combout $end
$var wire 1 W Q[5]~en_q $end
$var wire 1 X D[6]~input_o $end
$var wire 1 Y Q[6]~reg0feeder_combout $end
$var wire 1 Z Q[6]~reg0_q $end
$var wire 1 [ Q[6]~enfeeder_combout $end
$var wire 1 \ Q[6]~en_q $end
$var wire 1 ] D[7]~input_o $end
$var wire 1 ^ Q[7]~reg0_q $end
$var wire 1 _ Q[7]~enfeeder_combout $end
$var wire 1 ` Q[7]~en_q $end
$upscope $end
$upscope $end
$enddefinitions $end
#0
$dumpvars
0!
b1010011 "
0#
z+
z*
z)
z(
z'
z&
z%
z$
0,
1-
x.
1/
10
11
z2
z3
z4
z5
z6
z7
z8
z9
0:
0;
1<
1=
0>
0?
0@
0A
1B
1C
0D
0E
0F
0G
0H
0I
0J
0K
0L
0M
0N
0O
1P
0Q
0R
0S
0T
0U
0V
0W
1X
1Y
0Z
0[
0\
0]
0^
0_
0`
$end
#10000
1!
b1011011 "
1:
1L
1;
1Z
1Q
1M
1D
1>
#20000
0!
0:
0;
#30000
1!
1:
1;
#40000
0!
0:
0;
#50000
1!
1:
1;
#60000
0!
0:
0;
#70000
1#
1!
1?
1:
1;
1_
1[
1V
1R
1N
1J
1E
1@
#80000
b11011011 "
0!
1]
0:
0;
#90000
1!
1:
1;
1`
1^
1\
1W
1S
1O
1K
1F
1A
12
13
04
15
16
07
18
19
1$
1%
0&
1'
1(
0)
1*
1+
#100000
0!
0:
0;
#110000
b11111011 "
1!
1T
1:
1;
1U
17
1&
#120000
0!
0:
0;
#130000
1!
1:
1;
#140000
0!
0:
0;
#150000
1!
1:
1;
#160000
b11110011 "
0!
0L
0:
0;
#170000
b10110011 "
1!
0X
1:
1;
0Y
0M
05
0(
#180000
b10110010 "
b10110000 "
0!
0<
0B
0:
0;
0C
0=
#190000
1!
1:
1;
0Z
0D
0>
02
03
08
0%
0*
0+
#200000
0!
0:
0;
#210000
b10111000 "
1!
1L
1:
1;
1M
15
1(
#220000
0!
0:
0;
#230000
1!
1:
1;
#240000
b10111100 "
b10101100 "
b10101110 "
0!
1B
1G
0P
0:
0;
1H
1C
#250000
1!
1:
1;
0Q
1I
1D
13
14
06
0'
1)
1*
#260000
0!
0:
0;
#270000
b11101110 "
1!
1X
1:
1;
1Y
#280000
0!
0:
0;
#290000
b11001110 "
1!
0T
1:
1;
1Z
0U
07
18
1%
0&
#300000
0!
0:
0;
#310000
b11001111 "
1!
1<
1:
1;
1=
#320000
0!
0:
0;
#330000
1!
1:
1;
1>
12
1+
#340000
b11001011 "
b11011011 "
b11011001 "
0!
0B
0G
1P
0:
0;
0H
0C
#350000
1!
1:
1;
1Q
0I
0D
03
04
16
1'
0)
0*
#360000
b1011001 "
0!
0]
0:
0;
#370000
1!
1:
1;
0^
09
0$
#380000
b1010001 "
0!
0L
0:
0;
#390000
1!
1:
1;
0M
05
0(
#400000
0!
0:
0;
#410000
1!
1:
1;
#420000
0!
0:
0;
#430000
b10001 "
b10101 "
1!
1G
0X
1:
1;
0Y
1H
#440000
0!
0:
0;
#450000
1!
1:
1;
0Z
1I
14
08
0%
1)
#460000
0!
0:
0;
#470000
1!
1:
1;
#480000
0!
0:
0;
#490000
b10111 "
1!
1B
1:
1;
1C
#500000
b10110 "
0!
0<
0:
0;
0=
#510000
b1010110 "
1!
1X
1:
1;
1Y
1D
0>
02
13
1*
0+
#520000
0!
0:
0;
#530000
b1000110 "
1!
0P
1:
1;
1Z
0Q
06
18
1%
0'
#540000
0!
0:
0;
#550000
1!
1:
1;
#560000
0!
0:
0;
#570000
b1100110 "
1!
1T
1:
1;
1U
17
1&
#580000
0!
0:
0;
#590000
1!
1:
1;
#600000
0!
0:
0;
#610000
b1100010 "
1!
0G
1:
1;
0H
#620000
0!
0:
0;
#630000
1!
1:
1;
0I
04
0)
#640000
b1101010 "
0!
1L
0:
0;
#650000
b101010 "
1!
0X
1:
1;
0Y
1M
15
1(
#660000
0!
0:
0;
#670000
b101011 "
1!
1<
1:
1;
1=
0Z
08
0%
#680000
0!
0:
0;
#690000
1!
1:
1;
1>
12
1+
#700000
0!
0:
0;
#710000
1!
1:
1;
#720000
0!
0:
0;
#730000
b101001 "
1!
0B
1:
1;
0C
#740000
0!
0:
0;
#750000
b101101 "
1!
1G
1:
1;
1H
0D
03
0*
#760000
0!
0:
0;
#770000
1!
1:
1;
1I
14
1)
#780000
0!
0:
0;
#790000
0#
b100101 "
1!
0?
0L
1:
1;
0_
0[
0V
0R
0N
0J
0E
0@
0M
05
0(
#800000
0!
0:
0;
#810000
1!
1:
1;
0`
0\
0W
0S
0O
0K
0F
0A
z2
z3
z4
z5
z6
z7
z8
z9
z$
z%
z&
z'
z(
z)
z*
z+
#820000
b101 "
0!
0T
0:
0;
#830000
1!
1:
1;
0U
#840000
0!
0:
0;
#850000
1!
1:
1;
#860000
0!
0:
0;
#870000
1!
1:
1;
#880000
0!
0:
0;
#890000
b10000101 "
b11000101 "
1!
1X
1]
1:
1;
1Y
1^
#900000
0!
0:
0;
#910000
1!
1:
1;
1Z
#920000
0!
0:
0;
#930000
1!
1:
1;
#940000
0!
0:
0;
#950000
b11000001 "
1!
0G
1:
1;
0H
#960000
0!
0:
0;
#970000
1!
1:
1;
0I
#980000
0!
0:
0;
#990000
1!
1:
1;
