Ch6/74HC373/simulation/qsim/latch_74HC373.msim.vcd
$comment
	File created using the following command:
		vcd file latch_74HC373.msim.vcd -direction
$end
$date
	Sat Dec 25 12:20:12 2021
$end
$version
	ModelSim Version 10.5b
$end
$timescale
	1ps
$end

$scope module latch_74HC373_vlg_vec_tst $end
$var reg 8 ! D [7:0] $end
$var reg 1 " LE $end
$var reg 1 # OE $end
$var wire 1 $ Q [7] $end
$var wire 1 % Q [6] $end
$var wire 1 & Q [5] $end
$var wire 1 ' Q [4] $end
$var wire 1 ( Q [3] $end
$var wire 1 ) Q [2] $end
$var wire 1 * Q [1] $end
$var wire 1 + Q [0] $end

$scope module i1 $end
$var wire 1 , gnd $end
$var wire 1 - vcc $end
$var wire 1 . unknown $end
$var tri1 1 / devclrn $end
$var tri1 1 0 devpor $end
$var tri1 1 1 devoe $end
$var wire 1 2 Q[0]~output_o $end
$var wire 1 3 Q[1]~output_o $end
$var wire 1 4 Q[2]~output_o $end
$var wire 1 5 Q[3]~output_o $end
$var wire 1 6 Q[4]~output_o $end
$var wire 1 7 Q[5]~output_o $end
$var wire 1 8 Q[6]~output_o $end
$var wire 1 9 Q[7]~output_o $end
$var wire 1 : OE~input_o $end
$var wire 1 ; D[0]~input_o $end
$var wire 1 < LE~input_o $end
$var wire 1 = LE~inputclkctrl_outclk $end
$var wire 1 > Q[0]$latch~combout $end
$var wire 1 ? Q[0]_42~combout $end
$var wire 1 @ D[1]~input_o $end
$var wire 1 A Q[1]$latch~combout $end
$var wire 1 B D[2]~input_o $end
$var wire 1 C Q[2]$latch~combout $end
$var wire 1 D D[3]~input_o $end
$var wire 1 E Q[3]$latch~combout $end
$var wire 1 F D[4]~input_o $end
$var wire 1 G Q[4]$latch~combout $end
$var wire 1 H D[5]~input_o $end
$var wire 1 I Q[5]$latch~combout $end
$var wire 1 J D[6]~input_o $end
$var wire 1 K Q[6]$latch~combout $end
$var wire 1 L D[7]~input_o $end
$var wire 1 M Q[7]$latch~combout $end
$upscope $end
$upscope $end
$enddefinitions $end
#0
$dumpvars
b10000000 !
1"
0#
z+
z*
z)
z(
z'
z&
z%
z$
0,
1-
x.
1/
10
11
z2
z3
z4
z5
z6
z7
z8
z9
0:
0;
1<
1=
0>
0?
0@
0A
0B
0C
0D
0E
0F
0G
0H
0I
0J
0K
1L
0M
$end
#10000
b10000001 !
1;
#20000
b10000011 !
b10000010 !
0;
1@
#30000
b10000011 !
1;
#40000
b10000111 !
b10000101 !
b10000100 !
0;
0@
1B
#50000
b10000101 !
1;
#60000
b10000111 !
b10000110 !
0;
1@
#70000
b10000111 !
1;
#80000
b10001111 !
1#
b10001011 !
b10001001 !
b10001000 !
0;
0@
0B
1D
1:
1M
1E
1?
02
03
04
06
07
08
15
19
1$
1(
0%
0&
0'
0)
0*
0+
#90000
b10001001 !
1;
1>
12
1+
#100000
b10001011 !
b10001010 !
0;
1@
1A
0>
02
13
1*
0+
#110000
b10001011 !
1;
1>
12
1+
#120000
b10001111 !
b10001101 !
b10001100 !
0;
0@
1B
1C
0A
0>
02
03
14
1)
0*
0+
#130000
b10001101 !
1;
1>
12
1+
#140000
b10001111 !
b10001110 !
0;
1@
1A
0>
02
13
1*
0+
#150000
b10001111 !
1;
1>
12
1+
#160000
b10011111 !
b10010111 !
b10010011 !
b10010001 !
b10010000 !
0;
0@
0B
0D
1F
1G
0E
0C
0A
0>
02
03
04
05
16
1'
0(
0)
0*
0+
#170000
0"
b10010001 !
0<
1;
0=
#180000
b10010011 !
b10010010 !
0;
1@
#190000
b10010011 !
1;
#200000
b10010111 !
b10010101 !
b10010100 !
0;
0@
1B
#210000
b10010101 !
1;
#220000
b10010111 !
b10010110 !
0;
1@
#230000
b10010111 !
1;
#240000
b10011111 !
b10011011 !
b10011001 !
b10011000 !
0;
0@
0B
1D
#250000
b10011001 !
1;
#260000
b10011011 !
b10011010 !
0;
1@
#270000
b10011011 !
1;
#280000
b10011111 !
b10011101 !
b10011100 !
0;
0@
1B
#290000
b10011101 !
1;
#300000
b10011111 !
b10011110 !
0;
1@
#310000
b10011111 !
1;
#320000
b10111111 !
b10101111 !
1"
b10100111 !
b10100011 !
b10100001 !
b10100000 !
0;
0@
0B
0D
0F
1H
1<
1=
1I
0G
06
17
1&
0'
#330000
b10100001 !
1;
1>
12
1+
#340000
b10100011 !
b10100010 !
0;
1@
1A
0>
02
13
1*
0+
#350000
b10100011 !
1;
1>
12
1+
#360000
b10100111 !
b10100101 !
b10100100 !
0;
0@
1B
1C
0A
0>
02
03
14
1)
0*
0+
#370000
b10100101 !
1;
1>
12
1+
#380000
b10100111 !
b10100110 !
0;
1@
1A
0>
02
13
1*
0+
#390000
b10100111 !
1;
1>
12
1+
#400000
b10101111 !
b10101011 !
b10101001 !
b10101000 !
0;
0@
0B
1D
1E
0C
0A
0>
02
03
04
15
1(
0)
0*
0+
#410000
b10101001 !
1;
1>
12
1+
#420000
b10101011 !
b10101010 !
0;
1@
1A
0>
02
13
1*
0+
#430000
b10101011 !
1;
1>
12
1+
#440000
b10101111 !
b10101101 !
b10101100 !
0;
0@
1B
1C
0A
0>
02
03
14
1)
0*
0+
#450000
b10101101 !
1;
1>
12
1+
#460000
b10101111 !
b10101110 !
0;
1@
1A
0>
02
13
1*
0+
#470000
b10101111 !
1;
1>
12
1+
#480000
b10111111 !
b10110111 !
b10110011 !
b10110001 !
b10110000 !
0;
0@
0B
0D
1F
1G
0E
0C
0A
0>
02
03
04
05
16
1'
0(
0)
0*
0+
#490000
0"
b10110001 !
0<
1;
0=
#500000
b10110011 !
b10110010 !
0;
1@
#510000
b10110011 !
1;
#520000
b10110111 !
b10110101 !
b10110100 !
0;
0@
1B
#530000
b10110101 !
1;
#540000
b10110111 !
b10110110 !
0;
1@
#550000
b10110111 !
1;
#560000
b10111111 !
b10111011 !
b10111001 !
b10111000 !
0;
0@
0B
1D
#570000
1"
b10111001 !
1<
1;
1=
1>
1E
15
12
1+
1(
#580000
b10111011 !
b10111010 !
0;
1@
1A
0>
02
13
1*
0+
#590000
b10111011 !
1;
1>
12
1+
#600000
b10111111 !
b10111101 !
b10111100 !
0;
0@
1B
1C
0A
0>
02
03
14
1)
0*
0+
#610000
b10111101 !
1;
1>
12
1+
#620000
b10111111 !
b10111110 !
0;
1@
1A
0>
02
13
1*
0+
#630000
b10111111 !
1;
1>
12
1+
#640000
b10011111 !
b10001111 !
b10000111 !
b10000011 !
b10000001 !
b10000000 !
0;
0@
0B
0D
0F
0H
0I
0G
0E
0C
0A
0>
02
03
04
05
06
07
0&
0'
0(
0)
0*
0+
#650000
b10000001 !
1;
1>
12
1+
#660000
b10000011 !
b10000010 !
0;
1@
1A
0>
02
13
1*
0+
#670000
b10000011 !
1;
1>
12
1+
#680000
b10000111 !
b10000101 !
b10000100 !
0;
0@
1B
1C
0A
0>
02
03
14
1)
0*
0+
#690000
b10000101 !
1;
1>
12
1+
#700000
b10000111 !
b10000110 !
0;
1@
1A
0>
02
13
1*
0+
#710000
0"
b10000111 !
0<
1;
0=
#720000
b10001111 !
b10001011 !
b10001001 !
b10001000 !
0;
0@
0B
1D
#730000
b10001001 !
1;
#740000
0#
b10001011 !
b10001010 !
0:
0;
1@
0A
0M
0C
0?
z2
z5
z6
z7
z8
z4
z9
z3
z*
z$
z)
z%
z&
z'
z(
z+
#750000
b10001011 !
1;
#760000
b10001111 !
b10001101 !
b10001100 !
0;
0@
1B
#770000
b10001101 !
1;
#780000
b10001111 !
b10001110 !
0;
1@
#790000
b10001111 !
1;
#800000
b10011111 !
b10010111 !
b10010011 !
b10010001 !
b10010000 !
0;
0@
0B
0D
1F
#810000
1"
b10010001 !
1<
1;
1=
#820000
b10010011 !
b10010010 !
0;
1@
#830000
b10010011 !
1;
#840000
b10010111 !
b10010101 !
b10010100 !
0;
0@
1B
#850000
b10010101 !
1;
#860000
b10010111 !
b10010110 !
0;
1@
#870000
b10010111 !
1;
#880000
b10011111 !
b10011011 !
b10011001 !
b10011000 !
0;
0@
0B
1D
#890000
b10011001 !
1;
#900000
b10011011 !
b10011010 !
0;
1@
#910000
b10011011 !
1;
#920000
b10011111 !
b10011101 !
b10011100 !
0;
0@
1B
#930000
b10011101 !
1;
#940000
b10011111 !
b10011110 !
0;
1@
#950000
0"
b10011111 !
0<
1;
0=
#960000
b10111111 !
b10101111 !
b10100111 !
b10100011 !
b10100001 !
b10100000 !
0;
0@
0B
0D
0F
1H
#970000
b10100001 !
1;
#980000
b10100011 !
b10100010 !
0;
1@
#990000
b10100011 !
1;
