Ch6/74LVC161/simulation/qsim/counter74LVC161.msim.vcd
$comment
	File created using the following command:
		vcd file counter74LVC161.msim.vcd -direction
$end
$date
	Mon Dec 13 20:48:24 2021
$end
$version
	ModelSim Version 10.5b
$end
$timescale
	1ps
$end

$scope module counter74LVC161_vlg_vec_tst $end
$var reg 1 ! CEP $end
$var reg 1 " CET $end
$var reg 1 # CP $end
$var reg 1 $ CR $end
$var reg 4 % D [3:0] $end
$var reg 1 & PE $end
$var wire 1 ' Q [3] $end
$var wire 1 ( Q [2] $end
$var wire 1 ) Q [1] $end
$var wire 1 * Q [0] $end
$var wire 1 + TC $end

$scope module i1 $end
$var wire 1 , gnd $end
$var wire 1 - vcc $end
$var wire 1 . unknown $end
$var tri1 1 / devclrn $end
$var tri1 1 0 devpor $end
$var tri1 1 1 devoe $end
$var wire 1 2 TC~output_o $end
$var wire 1 3 Q[0]~output_o $end
$var wire 1 4 Q[1]~output_o $end
$var wire 1 5 Q[2]~output_o $end
$var wire 1 6 Q[3]~output_o $end
$var wire 1 7 CP~input_o $end
$var wire 1 8 CP~inputclkctrl_outclk $end
$var wire 1 9 D[2]~input_o $end
$var wire 1 : PE~input_o $end
$var wire 1 ; D[1]~input_o $end
$var wire 1 < D[0]~input_o $end
$var wire 1 = Q~3_combout $end
$var wire 1 > CR~input_o $end
$var wire 1 ? CR~inputclkctrl_outclk $end
$var wire 1 @ CET~input_o $end
$var wire 1 A CEP~input_o $end
$var wire 1 B Q[0]~1_combout $end
$var wire 1 C Q[0]~reg0_q $end
$var wire 1 D Q~4_combout $end
$var wire 1 E Q[1]~reg0_q $end
$var wire 1 F Q~2_combout $end
$var wire 1 G Q[2]~reg0_q $end
$var wire 1 H D[3]~input_o $end
$var wire 1 I Q~0_combout $end
$var wire 1 J Q[3]~reg0_q $end
$var wire 1 K TC~0_combout $end
$upscope $end
$upscope $end
$enddefinitions $end
#0
$dumpvars
0!
0"
1#
1$
b0 %
1&
0*
0)
0(
0'
0+
0,
1-
x.
1/
10
11
02
03
04
05
06
17
18
09
1:
0;
0<
1=
1>
1?
0@
0A
0B
0C
0D
0E
0F
0G
0H
0I
0J
0K
$end
#10000
b100 %
b1100 %
19
1H
#30000
0$
0>
0?
#40000
0&
0#
1$
0:
07
1>
1?
08
1B
1I
1F
0=
#50000
1!
1"
1#
1A
1@
17
18
1J
1G
15
16
1'
1(
#60000
b1000 %
b0 %
1&
0#
09
0H
1:
07
08
1=
#70000
1#
17
18
1C
13
1*
1D
0=
#80000
0#
07
08
#90000
1#
17
18
1E
0C
03
14
1)
0*
1=
#100000
0#
07
08
#110000
1#
17
18
1C
13
1*
1K
0I
0F
0D
0=
12
1+
#120000
0#
07
08
#130000
1#
17
18
0J
0G
0E
0C
03
04
05
06
0'
0(
0)
0*
0K
1=
02
0+
#140000
0#
07
08
#150000
1#
17
18
1C
13
1*
1D
0=
#160000
0#
07
08
#170000
1#
17
18
1E
0C
03
14
1)
0*
1=
#180000
0#
07
08
#190000
1#
17
18
1C
13
1*
1F
0D
0=
#200000
0#
07
08
#210000
1#
17
18
1G
0E
0C
03
04
15
1(
0)
0*
1=
#220000
0#
07
08
#230000
1#
17
18
1C
13
1*
1D
0=
#240000
0#
07
08
#250000
1#
17
18
1E
0C
03
14
1)
0*
1=
#260000
0#
07
08
#270000
1#
17
18
1C
13
1*
1I
0F
0D
0=
#280000
0#
07
08
#290000
0!
1#
0A
17
18
0B
1J
0G
0E
0C
03
04
05
16
1'
0(
0)
0*
1=
#300000
0#
07
08
#310000
1#
17
18
#320000
0#
07
08
#330000
1#
17
18
#340000
0#
07
08
#350000
1#
17
18
#360000
0#
07
08
#370000
1#
17
18
#380000
0"
1!
0#
0@
1A
07
08
#390000
1#
17
18
#400000
0#
07
08
#410000
1#
17
18
#420000
0#
07
08
#430000
1#
17
18
#440000
0#
07
08
#450000
1#
17
18
#460000
0#
07
08
#470000
1#
17
18
#480000
0#
07
08
#490000
1#
17
18
#500000
0#
07
08
#510000
1#
17
18
#520000
0#
07
08
#530000
1#
17
18
#540000
0#
07
08
#550000
1#
17
18
#560000
0#
07
08
#570000
1#
17
18
#580000
0#
07
08
#590000
1#
17
18
#600000
0#
07
08
#610000
1#
17
18
#620000
0#
07
08
#630000
1#
17
18
#640000
0#
07
08
#650000
1#
17
18
#660000
0#
07
08
#670000
1#
17
18
#680000
0#
07
08
#690000
1#
17
18
#700000
0#
07
08
#710000
1#
17
18
#720000
0#
07
08
#730000
1#
17
18
#740000
0#
07
08
#750000
1#
17
18
#760000
0#
07
08
#770000
1#
17
18
#780000
0#
07
08
#790000
1#
17
18
#800000
0#
07
08
#810000
1#
17
18
#820000
0#
07
08
#830000
1#
17
18
#840000
0#
07
08
#850000
1#
17
18
#860000
0#
07
08
#870000
1#
17
18
#880000
0#
07
08
#890000
1#
17
18
#900000
0#
07
08
#910000
1#
17
18
#920000
0#
07
08
#930000
1#
17
18
#940000
0#
07
08
#950000
1#
17
18
#960000
0#
07
08
#970000
1#
17
18
#980000
0#
07
08
#990000
1#
17
18
