Ch6/74HC194/simulation/qsim/shift74HC194.msim.vcd
$comment
	File created using the following command:
		vcd file shift74HC194.msim.vcd -direction
$end
$date
	Mon Dec 13 21:21:54 2021
$end
$version
	ModelSim Version 10.5b
$end
$timescale
	1ps
$end

$scope module shift74HC194_vlg_vec_tst $end
$var reg 1 ! CP $end
$var reg 1 " CR $end
$var reg 4 # D [3:0] $end
$var reg 1 $ Dsl $end
$var reg 1 % Dsr $end
$var reg 1 & S0 $end
$var reg 1 ' S1 $end
$var wire 1 ( Q [3] $end
$var wire 1 ) Q [2] $end
$var wire 1 * Q [1] $end
$var wire 1 + Q [0] $end

$scope module i1 $end
$var wire 1 , gnd $end
$var wire 1 - vcc $end
$var wire 1 . unknown $end
$var tri1 1 / devclrn $end
$var tri1 1 0 devpor $end
$var tri1 1 1 devoe $end
$var wire 1 2 Q[0]~output_o $end
$var wire 1 3 Q[1]~output_o $end
$var wire 1 4 Q[2]~output_o $end
$var wire 1 5 Q[3]~output_o $end
$var wire 1 6 CP~input_o $end
$var wire 1 7 CP~inputclkctrl_outclk $end
$var wire 1 8 S1~input_o $end
$var wire 1 9 S0~input_o $end
$var wire 1 : D[0]~input_o $end
$var wire 1 ; Dsr~input_o $end
$var wire 1 < D[1]~input_o $end
$var wire 1 = D[2]~input_o $end
$var wire 1 > Dsl~input_o $end
$var wire 1 ? D[3]~input_o $end
$var wire 1 @ Mux0~0_combout $end
$var wire 1 A CR~input_o $end
$var wire 1 B CR~inputclkctrl_outclk $end
$var wire 1 C Q[0]~0_combout $end
$var wire 1 D Q[3]~reg0_q $end
$var wire 1 E Mux1~0_combout $end
$var wire 1 F Q[2]~reg0_q $end
$var wire 1 G Mux2~0_combout $end
$var wire 1 H Q[1]~reg0_q $end
$var wire 1 I Mux3~0_combout $end
$var wire 1 J Q[0]~reg0_q $end
$upscope $end
$upscope $end
$enddefinitions $end
#0
$dumpvars
0!
1"
b1010 #
0$
1%
0&
0'
0+
0*
0)
0(
0,
1-
x.
1/
10
11
02
03
04
05
06
07
08
09
0:
1;
1<
0=
0>
1?
0@
1A
1B
0C
0D
0E
0F
0G
0H
1I
0J
$end
#10000
1!
16
17
#20000
0!
06
07
#30000
0"
1!
0A
16
0B
17
#40000
0!
06
07
#50000
1"
1!
1A
16
1B
17
#60000
0!
06
07
#70000
1&
1'
1!
19
18
16
17
1C
0I
1G
1@
#80000
0!
06
07
#90000
0&
0'
1!
09
08
16
17
0C
1I
0G
0@
1H
1D
15
13
1*
1(
1E
#100000
0!
06
07
#110000
1!
16
17
#120000
0!
06
07
#130000
1!
16
17
#140000
0!
06
07
#150000
1!
16
17
#160000
b1000 #
b0 #
0!
0<
0?
06
07
#170000
1!
16
17
#180000
0!
06
07
#190000
1!
16
17
#200000
0!
06
07
#210000
1'
1!
18
16
17
1C
#220000
0!
06
07
#230000
0'
1!
08
16
17
0C
1J
0H
1F
0D
05
14
03
12
1+
0*
1)
0(
0E
1G
1@
#240000
0!
06
07
#250000
1!
16
17
#260000
0!
06
07
#270000
1!
16
17
#280000
0!
06
07
#290000
1!
16
17
#300000
0!
06
07
#310000
1!
16
17
#320000
0!
06
07
#330000
1!
16
17
#340000
0!
06
07
#350000
1&
1!
19
16
17
1C
#360000
0!
06
07
#370000
0&
1!
09
16
17
0C
1H
0F
1D
15
04
13
1*
0)
1(
1E
0@
#380000
0!
06
07
#390000
1!
16
17
#400000
0!
06
07
#410000
1!
16
17
#420000
0!
06
07
#430000
1!
16
17
#440000
0!
06
07
#450000
1!
16
17
#460000
0!
06
07
#470000
1!
16
17
#480000
0!
06
07
#490000
1!
16
17
#500000
0!
06
07
#510000
1!
16
17
#520000
0!
06
07
#530000
1!
16
17
#540000
0!
06
07
#550000
1!
16
17
#560000
0!
06
07
#570000
1!
16
17
#580000
0!
06
07
#590000
1!
16
17
#600000
0!
06
07
#610000
1!
16
17
#620000
0!
06
07
#630000
1!
16
17
#640000
0!
06
07
#650000
1!
16
17
#660000
0!
06
07
#670000
1!
16
17
#680000
0!
06
07
#690000
1!
16
17
#700000
0!
06
07
#710000
1!
16
17
#720000
0!
06
07
#730000
1!
16
17
#740000
0!
06
07
#750000
1!
16
17
#760000
0!
06
07
#770000
1!
16
17
#780000
0!
06
07
#790000
1!
16
17
#800000
0!
06
07
#810000
1!
16
17
#820000
0!
06
07
#830000
1!
16
17
#840000
0!
06
07
#850000
1!
16
17
#860000
0!
06
07
#870000
1!
16
17
#880000
0!
06
07
#890000
1!
16
17
#900000
0!
06
07
#910000
1!
16
17
#920000
0!
06
07
#930000
1!
16
17
#940000
0!
06
07
#950000
1!
16
17
#960000
0!
06
07
#970000
1!
16
17
#980000
0!
06
07
#990000
1!
16
17
